,distance_sub_0,distance_sub_1
count,2042.0,2042.0
mean,1257.1008814887366,1351.126346718903
std,2042.6637695573472,3025.0661461099157
min,1000.0,1000.0
50%,1000.0,1000.0
90%,1000.0,1000.0
95%,1000.0,2000.0
max,48000.0,82000.0
